﻿{
  "dependencies": {
    "Microsoft.Azure.Mobile.Client": "4.0.2",
    "Xamarin.Forms": "2.5.0.122203"
  },
  "frameworks": {
    "Xamarin.iOS,Version=v1.0": {}
  },
  "runtimes": {
    "win": {}
  }
}